{
  "id": "art-gallery",
  "title": "Art Gallery",
  "version": "1.3.1.2",
  "compatibility": {
    "minimum": "11",
    "verified": "11"
  },
  "description": "Art Gallery allows you to finally show off all the character art you have collected!",
  "authors": [
    {
      "name": "FloRad",
      "url": "https://github.com/FloRad",
      "discord": "FloRadical#2142"
    }
  ],
  "socket": true,
  "languages": [
    {
      "lang": "en",
      "name": "English",
      "path": "lang/en.json"
    },
    {
      "lang": "de",
      "name": "Deutsch",
      "path": "lang/de.json"
    },
    {
      "lang": "ja",
      "name": "日本語",
      "path": "lang/ja.json"
    }
  ],
  "esmodules": [
    "art-gallery.js"
  ],
  "styles": [
    "art-gallery.scss"
  ],
  "url": "https://gitlab.com/Shaw09/art-gallery",
  "minimumCoreVersion": "11",
  "compatibleCoreVersion": "11",
  "manifest": "https://gitlab.com/Shaw09/art-gallery/-/raw/master/module.json",
  "download": "https://gitlab.com/Shaw09/art-gallery/-/archive/master/art-gallery-master.zip"
}